{
  "formatVersion": 1,
  "database": {
    "version": 1,
    "identityHash": "fee6d4791e62afb072532d9398fc6db0",
    "entities": [
      {
        "tableName": "city_entity_table",
        "createSql": "CREATE TABLE IF NOT EXISTS `${TABLE_NAME}` (`id` INTEGER NOT NULL, `country` TEXT NOT NULL, `name` TEXT NOT NULL, `state` TEXT NOT NULL, `selected` INTEGER NOT NULL DEFAULT 0, `lat` REAL NOT NULL, `lon` REAL NOT NULL, PRIMARY KEY(`id`))",
        "fields": [
          {
            "fieldPath": "id",
            "columnName": "id",
            "affinity": "INTEGER",
            "notNull": true
          },
          {
            "fieldPath": "country",
            "columnName": "country",
            "affinity": "TEXT",
            "notNull": true
          },
          {
            "fieldPath": "name",
            "columnName": "name",
            "affinity": "TEXT",
            "notNull": true
          },
          {
            "fieldPath": "state",
            "columnName": "state",
            "affinity": "TEXT",
            "notNull": true
          },
          {
            "fieldPath": "selected",
            "columnName": "selected",
            "affinity": "INTEGER",
            "notNull": true,
            "defaultValue": "0"
          },
          {
            "fieldPath": "coord.lat",
            "columnName": "lat",
            "affinity": "REAL",
            "notNull": true
          },
          {
            "fieldPath": "coord.lon",
            "columnName": "lon",
            "affinity": "REAL",
            "notNull": true
          }
        ],
        "primaryKey": {
          "columnNames": [
            "id"
          ],
          "autoGenerate": false
        },
        "indices": [
          {
            "name": "city_name",
            "unique": false,
            "columnNames": [
              "name"
            ],
            "createSql": "CREATE INDEX IF NOT EXISTS `city_name` ON `${TABLE_NAME}` (`name`)"
          }
        ],
        "foreignKeys": []
      },
      {
        "tableName": "forecast_entity_table",
        "createSql": "CREATE TABLE IF NOT EXISTS `${TABLE_NAME}` (`fid` INTEGER PRIMARY KEY AUTOINCREMENT NOT NULL, `city` INTEGER NOT NULL, `dt` INTEGER NOT NULL, `dtTxt` TEXT NOT NULL, `pop` REAL NOT NULL, `visibility` INTEGER NOT NULL, `all` INTEGER NOT NULL, `feels_like` REAL NOT NULL, `grnd_level` INTEGER NOT NULL, `humidity` INTEGER NOT NULL, `pressure` INTEGER NOT NULL, `sea_level` INTEGER NOT NULL, `temp` REAL NOT NULL, `temp_kf` REAL NOT NULL, `temp_max` REAL NOT NULL, `temp_min` REAL NOT NULL, `pod` TEXT NOT NULL, `description` TEXT NOT NULL, `icon` TEXT NOT NULL, `id` INTEGER NOT NULL, `main` TEXT NOT NULL, `deg` INTEGER NOT NULL, `gust` REAL NOT NULL, `speed` REAL NOT NULL, FOREIGN KEY(`city`) REFERENCES `city_entity_table`(`id`) ON UPDATE NO ACTION ON DELETE CASCADE )",
        "fields": [
          {
            "fieldPath": "fid",
            "columnName": "fid",
            "affinity": "INTEGER",
            "notNull": true
          },
          {
            "fieldPath": "city",
            "columnName": "city",
            "affinity": "INTEGER",
            "notNull": true
          },
          {
            "fieldPath": "dt",
            "columnName": "dt",
            "affinity": "INTEGER",
            "notNull": true
          },
          {
            "fieldPath": "dtTxt",
            "columnName": "dtTxt",
            "affinity": "TEXT",
            "notNull": true
          },
          {
            "fieldPath": "pop",
            "columnName": "pop",
            "affinity": "REAL",
            "notNull": true
          },
          {
            "fieldPath": "visibility",
            "columnName": "visibility",
            "affinity": "INTEGER",
            "notNull": true
          },
          {
            "fieldPath": "clouds.all",
            "columnName": "all",
            "affinity": "INTEGER",
            "notNull": true
          },
          {
            "fieldPath": "main.feels_like",
            "columnName": "feels_like",
            "affinity": "REAL",
            "notNull": true
          },
          {
            "fieldPath": "main.grnd_level",
            "columnName": "grnd_level",
            "affinity": "INTEGER",
            "notNull": true
          },
          {
            "fieldPath": "main.humidity",
            "columnName": "humidity",
            "affinity": "INTEGER",
            "notNull": true
          },
          {
            "fieldPath": "main.pressure",
            "columnName": "pressure",
            "affinity": "INTEGER",
            "notNull": true
          },
          {
            "fieldPath": "main.sea_level",
            "columnName": "sea_level",
            "affinity": "INTEGER",
            "notNull": true
          },
          {
            "fieldPath": "main.temp",
            "columnName": "temp",
            "affinity": "REAL",
            "notNull": true
          },
          {
            "fieldPath": "main.temp_kf",
            "columnName": "temp_kf",
            "affinity": "REAL",
            "notNull": true
          },
          {
            "fieldPath": "main.temp_max",
            "columnName": "temp_max",
            "affinity": "REAL",
            "notNull": true
          },
          {
            "fieldPath": "main.temp_min",
            "columnName": "temp_min",
            "affinity": "REAL",
            "notNull": true
          },
          {
            "fieldPath": "sys.pod",
            "columnName": "pod",
            "affinity": "TEXT",
            "notNull": true
          },
          {
            "fieldPath": "weather.description",
            "columnName": "description",
            "affinity": "TEXT",
            "notNull": true
          },
          {
            "fieldPath": "weather.icon",
            "columnName": "icon",
            "affinity": "TEXT",
            "notNull": true
          },
          {
            "fieldPath": "weather.id",
            "columnName": "id",
            "affinity": "INTEGER",
            "notNull": true
          },
          {
            "fieldPath": "weather.main",
            "columnName": "main",
            "affinity": "TEXT",
            "notNull": true
          },
          {
            "fieldPath": "wind.deg",
            "columnName": "deg",
            "affinity": "INTEGER",
            "notNull": true
          },
          {
            "fieldPath": "wind.gust",
            "columnName": "gust",
            "affinity": "REAL",
            "notNull": true
          },
          {
            "fieldPath": "wind.speed",
            "columnName": "speed",
            "affinity": "REAL",
            "notNull": true
          }
        ],
        "primaryKey": {
          "columnNames": [
            "fid"
          ],
          "autoGenerate": true
        },
        "indices": [
          {
            "name": "index_forecast_entity_table_city",
            "unique": false,
            "columnNames": [
              "city"
            ],
            "createSql": "CREATE INDEX IF NOT EXISTS `index_forecast_entity_table_city` ON `${TABLE_NAME}` (`city`)"
          }
        ],
        "foreignKeys": [
          {
            "table": "city_entity_table",
            "onDelete": "CASCADE",
            "onUpdate": "NO ACTION",
            "columns": [
              "city"
            ],
            "referencedColumns": [
              "id"
            ]
          }
        ]
      }
    ],
    "views": [],
    "setupQueries": [
      "CREATE TABLE IF NOT EXISTS room_master_table (id INTEGER PRIMARY KEY,identity_hash TEXT)",
      "INSERT OR REPLACE INTO room_master_table (id,identity_hash) VALUES(42, 'fee6d4791e62afb072532d9398fc6db0')"
    ]
  }
}